…
### 3. Mean and median total steps per day

``` r
    day_summary <- data %>%
        group_by(date) %>%
        summarise(mean_steps = mean(steps, na.rm = TRUE), 
                  median_steps = median(steps, na.rm = TRUE),
                  .groups = "drop"
        )
    day_summary
```

```
## # A tibble: 61 × 3
##    date       mean_steps median_steps
##    <date>          <dbl>        <dbl>
##  1 2012-10-01    NaN               NA
##  2 2012-10-02      0.438            0
##  3 2012-10-03     39.4              0
##  4 2012-10-04     42.1              0
##  5 2012-10-05     46.2              0
##  6 2012-10-06     53.5              0
##  7 2012-10-07     38.2              0
##  8 2012-10-08    NaN               NA
##  9 2012-10-09     44.5              0
## 10 2012-10-10     34.4              0
## # ℹ 51 more rows
```
…
